(module B-5991 (layer F.Cu) (tedit 0)
  (descr "May be used with socket: <b>SK-136</b>")
  (fp_text reference N6 (at 11.7475 12.5412) (layer F.SilkS)
    (effects (font (size 1.2065 1.2065) (thickness 0.09652)) (justify right top))
  )
  (fp_text value B-5991 (at 0 0) (layer F.SilkS) hide
    (effects (font (size 1.27 1.27) (thickness 0.15)))
  )
  (fp_arc (start 0 0.810744) (end 9.906 7.747) (angle 110) (layer F.SilkS) (width 0.254))
  (fp_arc (start 0 -0.810744) (end -9.906 -7.747) (angle 110) (layer F.SilkS) (width 0.254))
  (fp_line (start 9.906 -7.747) (end 9.906 7.747) (layer F.SilkS) (width 0.254))
  (fp_line (start -9.906 7.747) (end -9.906 -7.747) (layer F.SilkS) (width 0.254))
  (fp_circle (center 1.199887 -5.19729) (end 1.834887 -5.19729) (layer F.SilkS) (width 0.127))
  (fp_circle (center 1.199887 5.19729) (end 1.834887 5.19729) (layer F.SilkS) (width 0.127))
  (pad 6 thru_hole circle (at 0 -8.636) (size 2.54 2.54) (drill 1.1) (layers *.Cu *.Mask)
    (solder_mask_margin 0.1016))
  (pad 9 thru_hole circle (at 5.588 0) (size 2.54 2.54) (drill 1.1) (layers *.Cu *.Mask)
    (solder_mask_margin 0.1016))
  (pad 8 thru_hole circle (at 5.588 -4.318) (size 2.54 2.54) (drill 1.1) (layers *.Cu *.Mask)
    (solder_mask_margin 0.1016))
  (pad LHDP thru_hole circle (at 0 8.636) (size 2.54 2.54) (drill 1.1) (layers *.Cu *.Mask)
    (solder_mask_margin 0.1016))
  (pad 0 thru_hole circle (at 5.588 4.318) (size 2.54 2.54) (drill 1.1) (layers *.Cu *.Mask)
    (solder_mask_margin 0.1016))
  (pad A thru_hole circle (at 3.785771 7.761984) (size 2.54 2.54) (drill 1.1) (layers *.Cu *.Mask)
    (solder_mask_margin 0.1016))
  (pad 7 thru_hole circle (at 3.785771 -7.761984) (size 2.54 2.54) (drill 1.1) (layers *.Cu *.Mask)
    (solder_mask_margin 0.1016))
  (pad 5 thru_hole circle (at -3.785771 -7.761984) (size 2.54 2.54) (drill 1.1) (layers *.Cu *.Mask)
    (solder_mask_margin 0.1016))
  (pad 4 thru_hole circle (at -5.588 -4.318) (size 2.54 2.54) (drill 1.1) (layers *.Cu *.Mask)
    (solder_mask_margin 0.1016))
  (pad 3 thru_hole circle (at -5.588 0) (size 2.54 2.54) (drill 1.1) (layers *.Cu *.Mask)
    (solder_mask_margin 0.1016))
  (pad 2 thru_hole circle (at -5.588 4.318) (size 2.54 2.54) (drill 1.1) (layers *.Cu *.Mask)
    (solder_mask_margin 0.1016))
  (pad 1 thru_hole circle (at -3.785771 7.761984) (size 2.54 2.54) (drill 1.1) (layers *.Cu *.Mask)
    (solder_mask_margin 0.1016))
)
