(module B3F-10XX (layer F.Cu) (tedit 0)
  (descr "<b>OMRON SWITCH</b>")
  (fp_text reference S1 (at -3.048 -3.683) (layer F.SilkS)
    (effects (font (size 1.2065 1.2065) (thickness 0.12065)) (justify right top))
  )
  (fp_text value "" (at -3.048 5.08) (layer F.Fab)
    (effects (font (size 1.2065 1.2065) (thickness 0.12065)) (justify right top))
  )
  (fp_line (start 3.302 0.762) (end 3.048 0.762) (layer F.SilkS) (width 0.1524))
  (fp_line (start 3.302 0.762) (end 3.302 -0.762) (layer F.SilkS) (width 0.1524))
  (fp_line (start 3.048 -0.762) (end 3.302 -0.762) (layer F.SilkS) (width 0.1524))
  (fp_line (start 3.048 -1.016) (end 3.048 -2.54) (layer F.Fab) (width 0.1524))
  (fp_line (start -3.302 -0.762) (end -3.048 -0.762) (layer F.SilkS) (width 0.1524))
  (fp_line (start -3.302 -0.762) (end -3.302 0.762) (layer F.SilkS) (width 0.1524))
  (fp_line (start -3.048 0.762) (end -3.302 0.762) (layer F.SilkS) (width 0.1524))
  (fp_line (start 3.048 -2.54) (end 2.54 -3.048) (layer F.Fab) (width 0.1524))
  (fp_line (start 2.54 3.048) (end 3.048 2.54) (layer F.Fab) (width 0.1524))
  (fp_line (start 3.048 2.54) (end 3.048 1.016) (layer F.Fab) (width 0.1524))
  (fp_line (start -2.54 -3.048) (end -3.048 -2.54) (layer F.Fab) (width 0.1524))
  (fp_line (start -3.048 -2.54) (end -3.048 -1.016) (layer F.Fab) (width 0.1524))
  (fp_line (start -2.54 3.048) (end -3.048 2.54) (layer F.Fab) (width 0.1524))
  (fp_line (start -3.048 2.54) (end -3.048 1.016) (layer F.Fab) (width 0.1524))
  (fp_line (start -1.27 -1.27) (end -1.27 1.27) (layer F.Fab) (width 0.0508))
  (fp_line (start 1.27 1.27) (end -1.27 1.27) (layer F.Fab) (width 0.0508))
  (fp_line (start 1.27 1.27) (end 1.27 -1.27) (layer F.Fab) (width 0.0508))
  (fp_line (start -1.27 -1.27) (end 1.27 -1.27) (layer F.Fab) (width 0.0508))
  (fp_line (start -1.27 -3.048) (end -1.27 -2.794) (layer F.SilkS) (width 0.0508))
  (fp_line (start 1.27 -2.794) (end -1.27 -2.794) (layer F.SilkS) (width 0.0508))
  (fp_line (start 1.27 -2.794) (end 1.27 -3.048) (layer F.SilkS) (width 0.0508))
  (fp_line (start 1.143 2.794) (end -1.27 2.794) (layer F.SilkS) (width 0.0508))
  (fp_line (start 1.143 2.794) (end 1.143 3.048) (layer F.SilkS) (width 0.0508))
  (fp_line (start -1.27 2.794) (end -1.27 3.048) (layer F.SilkS) (width 0.0508))
  (fp_line (start 2.54 3.048) (end 2.159 3.048) (layer F.Fab) (width 0.1524))
  (fp_line (start -2.54 3.048) (end -2.159 3.048) (layer F.Fab) (width 0.1524))
  (fp_line (start -2.159 3.048) (end -1.27 3.048) (layer F.SilkS) (width 0.1524))
  (fp_line (start -2.54 -3.048) (end -2.159 -3.048) (layer F.Fab) (width 0.1524))
  (fp_line (start 2.54 -3.048) (end 2.159 -3.048) (layer F.Fab) (width 0.1524))
  (fp_line (start 2.159 -3.048) (end 1.27 -3.048) (layer F.SilkS) (width 0.1524))
  (fp_line (start 1.27 -3.048) (end -1.27 -3.048) (layer F.SilkS) (width 0.1524))
  (fp_line (start -1.27 -3.048) (end -2.159 -3.048) (layer F.SilkS) (width 0.1524))
  (fp_line (start -1.27 3.048) (end 1.143 3.048) (layer F.SilkS) (width 0.1524))
  (fp_line (start 1.143 3.048) (end 2.159 3.048) (layer F.SilkS) (width 0.1524))
  (fp_line (start 3.048 0.762) (end 3.048 1.016) (layer F.SilkS) (width 0.1524))
  (fp_line (start 3.048 -0.762) (end 3.048 -1.016) (layer F.SilkS) (width 0.1524))
  (fp_line (start -3.048 0.762) (end -3.048 1.016) (layer F.SilkS) (width 0.1524))
  (fp_line (start -3.048 -0.762) (end -3.048 -1.016) (layer F.SilkS) (width 0.1524))
  (fp_line (start -1.27 2.159) (end 1.27 2.159) (layer F.Fab) (width 0.1524))
  (fp_line (start 1.27 -2.286) (end -1.27 -2.286) (layer F.Fab) (width 0.1524))
  (fp_line (start -2.413 -1.27) (end -2.413 -0.508) (layer F.Fab) (width 0.1524))
  (fp_line (start -2.413 0.508) (end -2.413 1.27) (layer F.Fab) (width 0.1524))
  (fp_line (start -2.413 -0.508) (end -2.159 0.381) (layer F.Fab) (width 0.1524))
  (fp_circle (center 0 0) (end 1.778 0) (layer F.SilkS) (width 0.1524))
  (fp_circle (center -2.159 2.159) (end -1.651 2.159) (layer F.Fab) (width 0.1524))
  (fp_circle (center 2.159 2.032) (end 2.667 2.032) (layer F.Fab) (width 0.1524))
  (fp_circle (center 2.159 -2.159) (end 2.667 -2.159) (layer F.Fab) (width 0.1524))
  (fp_circle (center -2.159 -2.159) (end -1.651 -2.159) (layer F.Fab) (width 0.1524))
  (fp_circle (center 0 0) (end 0.635 0) (layer F.Fab) (width 0.0508))
  (fp_circle (center 0 0) (end 0.254 0) (layer F.SilkS) (width 0.1524))
  (fp_text user 1 (at -4.318 -1.651) (layer F.Fab)
    (effects (font (size 1.2065 1.2065) (thickness 0.127)) (justify left bottom))
  )
  (fp_text user 2 (at 3.556 -1.524) (layer F.Fab)
    (effects (font (size 1.2065 1.2065) (thickness 0.127)) (justify left bottom))
  )
  (fp_text user 3 (at -4.572 2.794) (layer F.Fab)
    (effects (font (size 1.2065 1.2065) (thickness 0.127)) (justify left bottom))
  )
  (fp_text user 4 (at 3.556 2.794) (layer F.Fab)
    (effects (font (size 1.2065 1.2065) (thickness 0.127)) (justify left bottom))
  )
  (pad 1 thru_hole oval (at -3.2512 -2.2606) (size 3.048 1.524) (drill 1.016) (layers *.Cu *.Mask)
    (solder_mask_margin 0.1016))
  (pad 3 thru_hole oval (at -3.2512 2.2606) (size 3.048 1.524) (drill 1.016) (layers *.Cu *.Mask)
    (solder_mask_margin 0.1016))
  (pad 2 thru_hole oval (at 3.2512 -2.2606) (size 3.048 1.524) (drill 1.016) (layers *.Cu *.Mask)
    (solder_mask_margin 0.1016))
  (pad 4 thru_hole oval (at 3.2512 2.2606) (size 3.048 1.524) (drill 1.016) (layers *.Cu *.Mask)
    (solder_mask_margin 0.1016))
)
